4 example 1: | Introdução à Análise de Dados em R utilizando Tidyverse
…
Mutating joins allow us to combine variables from multiple tables. We’ll use some datasets from the nycflights13 package which includes data from 336,776 flights (tibble flights), weather conditions (tibble weather) and aircraft (tibble planes) that landed and took off from 3 airports (tibble airports) in New York in 2013. The data comes from the US Bureau of Transportation Statistics.

Initially we’ll use the flights dataset. Let’s separate some columns from the original tibble into another. Then we’ll try to join the two based on the airline name.

library("nycflights13")
library(dplyr)

# Drop unimportant variables so it's easier to understand the join results.
flights2 <- flights %>% select(year:day, hour, origin, dest, tailnum, carrier)

flights2 %>% 
  left_join(airlines)

## # A tibble: 336,776 × 9
##     year month   day  hour origin dest  tailnum carrier name                    
##    <int> <int> <int> <dbl> <chr>  <chr> <chr>   <chr>   <chr>                   
##  1  2013     1     1     5 EWR    IAH   N14228  UA      United Air Lines Inc.   
##  2  2013     1     1     5 LGA    IAH   N24211  UA      United Air Lines Inc.   
##  3  2013     1     1     5 JFK    MIA   N619AA  AA      American Airlines Inc.  
##  4  2013     1     1     5 JFK    BQN   N804JB  B6      JetBlue Airways         
##  5  2013     1     1     6 LGA    ATL   N668DN  DL      Delta Air Lines Inc.    
##  6  2013     1     1     5 EWR    ORD   N39463  UA      United Air Lines Inc.   
##  7  2013     1     1     6 EWR    FLL   N516JB  B6      JetBlue Airways         
##  8  2013     1     1     6 LGA    IAD   N829AS  EV      ExpressJet Airlines Inc.
##  9  2013     1     1     6 JFK    MCO   N593JB  B6      JetBlue Airways         
## 10  2013     1     1     6 LGA    ORD   N3ALAA  AA      American Airlines Inc.  
## # ℹ 336,766 more rows

4.3.1.1 Controlling how tables match in mutating joins

Along with the x and y arguments, each mutating join also receives a by argument which is used as an index to match between tables. There are several ways to specify this argument.
Let’s see examples of how to specify the by parameter, using some tables from nycflights13.

1st way) NULL: the default. dplyr will use all variables that appear in both tables. We call this a natural join. In the following example, the flights and weather tables will be “joined” based on common variables: year, month, day, hour and origin.

flights2 %>% left_join(weather)

## Joining with `by = join_by(year, month, day, hour, origin)`

## # A tibble: 336,776 × 18
##     year month   day  hour origin dest  tailnum carrier  temp  dewp humid wind_dir wind_speed
##    <int> <int> <int> <dbl> <chr>  <chr> <chr>   <chr>   <dbl> <dbl> <dbl>    <dbl>      <dbl>
##  1  2013     1     1     5 EWR    IAH   N14228  UA       39.0  28.0  64.4      260       12.7
##  2  2013     1     1     5 LGA    IAH   N24211  UA       39.9  25.0  54.8      250       15.0
##  3  2013     1     1     5 JFK    MIA   N619AA  AA       39.0  27.0  61.6      260       15.0
##  4  2013     1     1     5 JFK    BQN   N804JB  B6       39.0  27.0  61.6      260       15.0
##  5  2013     1     1     6 LGA    ATL   N668DN  DL       39.9  25.0  54.8      260       16.1
##  6  2013     1     1     5 EWR    ORD   N39463  UA       39.0  28.0  64.4      260       12.7
##  7  2013     1     1     6 EWR    FLL   N516JB  B6       37.9  28.0  67.2      240       11.5
##  8  2013     1     1     6 LGA    IAD   N829AS  EV       39.9  25.0  54.8      260       16.1
##  9  2013     1     1     6 JFK    MCO   N593JB  B6       37.9  27.0  64.3      260       13.8
## 10  2013     1     1     6 LGA    ORD   N3ALAA  AA       39.9  25.0  54.8      260       16.1
## # ℹ 336,766 more rows
## # ℹ 5 more variables: wind_gust <dbl>, precip <dbl>, pressure <dbl>, visib <dbl>, time_hour <dttm>

2nd way) by = "var1" or by = c("var1", "var2", "var3"): a character vector. Operates as if it were a natural join, but uses only some of the common variables. For example, flights and planes have a year variable, but they mean different things in each tibble/dataframe. So, we want to specify a column we know means the same thing in both tibbles and can serve as an index for matching. Let’s use tailnum which is the plane’s (tail) number.

flights2 %>% left_join(planes, by = "tailnum")

## # A tibble: 336,776 × 16
##    year.x month   day  hour origin dest  tailnum carrier year.y type  manufacturer model engines seats
##     <int> <int> <int> <dbl> <chr>  <chr> <chr>   <chr>    <int> <chr> <chr>        <chr>   <int> <int>
##  1   2013     1     1     5 EWR    IAH   N14228  UA        1999 Fixe… BOEING       737-…       2   149
##  2   2013     1     1     5 LGA    IAH   N24211  UA        1998 Fixe… BOEING       737-…       2   149
##  3   2013     1     1     5 JFK    MIA   N619AA  AA        1990 Fixe… BOEING       757-…       2   178
##  4   2013     1     1     5 JFK    BQN   N804JB  B6        2012 Fixe… AIRBUS       A320…       2   200
##  5   2013     1     1     6 LGA    ATL   N668DN  DL        1991 Fixe… BOEING       757-…       2   178
##  6   2013     1     1     5 EWR    ORD   N39463  UA        2012 Fixe… BOEING       737-…       2   191
##  7   2013     1     1     6 EWR    FLL   N516JB  B6        2000 Fixe… AIRBUS INDU… A320…       2   200
##  8   2013     1     1     6 LGA    IAD   N829AS  EV        1998 Fixe… CANADAIR     CL-6…       2    55
##  9   2013     1     1     6 JFK    MCO   N593JB  B6        2004 Fixe… AIRBUS       A320…       2   200
## 10   2013     1     1     6 LGA    ORD   N3ALAA  AA          NA <NA>  <NA>         <NA>       NA    NA
## # ℹ 336,766 more rows
## # ℹ 2 more variables: speed <int>, engine <chr>

Note that when joining all columns from both tibbles, dplyr adds a suffix to the second year variable.

3rd way) by = c("var1" = "var3"): a named character vector. This will match variable var1 in table x with variable var3 in table y. Variables from source table x will be used in the output.

Each flight has an origin and destination airport. So we need to specify which of these variables from the flights dataset we want to match with the faa column from the airports dataset.

flights2 %>% left_join(airports, c("dest" = "faa"))

## # A tibble: 336,776 × 15
##     year month   day  hour origin dest  tailnum carrier name         lat   lon   alt    tz dst   tzone
##    <int> <int> <int> <dbl> <chr>  <chr> <chr>   <chr>   <chr>      <dbl> <dbl> <dbl> <dbl> <chr> <chr>
##  1  2013     1     1     5 EWR    IAH   N14228  UA      George Bu…  30.0 -95.3    97    -6 A     Amer…
##  2  2013     1     1     5 LGA    IAH   N24211  UA      George Bu…  30.0 -95.3    97    -6 A     Amer…
##  3  2013     1     1     5 JFK    MIA   N619AA  AA      Miami Intl  25.8 -80.3     8    -5 A     Amer…
##  4  2013     1     1     5 JFK    BQN   N804JB  B6      <NA>        NA    NA      NA    NA <NA>  <NA> 
##  5  2013     1     1     6 LGA    ATL   N668DN  DL      Hartsfiel…  33.6 -84.4  1026    -5 A     Amer…
##  6  2013     1     1     5 EWR    ORD   N39463  UA      Chicago O…  42.0 -87.9   668    -6 A     Amer…
##  7  2013     1     1     6 EWR    FLL   N516JB  B6      Fort Laud…  26.1 -80.2     9    -5 A     Amer…
##  8  2013     1     1     6 LGA    IAD   N829AS  EV      Washingto…  38.9 -77.5   313    -5 A     Amer…
##  9  2013     1     1     6 JFK    MCO   N593JB  B6      Orlando I…  28.4 -81.3    96    -5 A     Amer…
## 10  2013     1     1     6 LGA    ORD   N3ALAA  AA      Chicago O…  42.0 -87.9   668    -6 A     Amer…
## # ℹ 336,766 more rows

flights2 %>% left_join(airports, c("origin" = "faa"))

## # A tibble: 336,776 × 15
##     year month   day  hour origin dest  tailnum carrier name         lat   lon   alt    tz dst   tzone
##    <int> <int> <int> <dbl> <chr>  <chr> <chr>   <chr>   <chr>      <dbl> <dbl> <dbl> <dbl> <chr> <chr>
##  1  2013     1     1     5 EWR    IAH   N14228  UA      Newark Li…  40.7 -74.2    18    -5 A     Amer…
##  2  2013     1     1     5 LGA    IAH   N24211  UA      La Guardia  40.8 -73.9    22    -5 A     Amer…
##  3  2013     1     1     5 JFK    MIA   N619AA  AA      John F Ke…  40.6 -73.8    13    -5 A     Amer…
##  4  2013     1     1     5 JFK    BQN   N804JB  B6      John F Ke…  40.6 -73.8    13    -5 A     Amer…
##  5  2013     1     1     6 LGA    ATL   N668DN  DL      La Guardia  40.8 -73.9    22    -5 A     Amer…
##  6  2013     1     1     5 EWR    ORD   N39463  UA      Newark Li…  40.7 -74.2    18    -5 A     Amer…
##  7  2013     1     1     6 EWR    FLL   N516JB  B6      Newark Li…  40.7 -74.2    18    -5 A     Amer…
##  8  2013     1     1     6 LGA    IAD   N829AS  EV      La Guardia  40.8 -73.9    22    -5 A     Amer…
##  9  2013     1     1     6 JFK    MCO   N593JB  B6      John F Ke…  40.6 -73.8    13    -5 A     Amer…
## 10  2013     1     1     6 LGA    ORD   N3ALAA  AA      La Guardia  40.8 -73.9    22    -5 A     Amer…
## # ℹ 336,766 more rows
…
4.3.2 Filtering joins

Filtering joins “match” observations in the same way as mutating joins, but affect observations themselves and not variables. There are two types of filtering joins:

semi_join() KEEPS all observations in x that have correspondence in y;

anti_join() REMOVES all observations in x that have correspondence in y.

These joins are very useful for identifying “mismatches” between tables. For example, there are several flights in the flights dataset that don’t have matches regarding tailnum in the planes dataset:

flights %>% 
  anti_join(planes, by = "tailnum") %>% 
  count(tailnum, sort = TRUE)

## # A tibble: 722 × 2
##    tailnum     n
##    <chr>   <int>
##  1 <NA>     2512
##  2 N725MQ    575
##  3 N722MQ    513
##  4 N723MQ    507
##  5 N713MQ    483
##  6 N735MQ    396
##  7 N0EGMQ    371
##  8 N534MQ    364
##  9 N542MQ    363
## 10 N531MQ    349
## # ℹ 712 more rows
…
