2 Module II | Introduction to Data Analysis with R and the Tidyverse
…
## ℹ Using "','" as decimal and "'.'" as grouping mark. Use `read_delim()` for more control.

## Warning: One or more parsing issues, call `problems()` on your data frame for details, e.g.:
##   dat <- vroom(...)
##   problems(dat)

Once the file is read, we can inspect it by calling the created object, or by clicking on the object name in our environment.

wine_data

## # A tibble: 1,599 × 12
##    `fixed acidity` `volatile acidity` `citric acid` `residual sugar` chlorides `free sulfur dioxide`
##              <dbl>              <dbl>         <dbl>            <dbl>     <dbl>                 <dbl>
##  1              NA                 NA             0               NA        NA                    11
##  2              NA                 NA             0               NA        NA                    25
##  3              NA                 NA            NA               NA        NA                    15
##  4              NA                 NA            NA               NA        NA                    17
##  5              NA                 NA             0               NA        NA                    11
##  6              NA                 NA             0               NA        NA                    13
##  7              NA                 NA            NA               NA        NA                    15
##  8              NA                 NA             0               NA        NA                    15
##  9              NA                 NA            NA                2        NA                     9
## 10              NA                 NA            NA               NA        NA                    17
## # ℹ 1,589 more rows
## # ℹ 6 more variables: `total sulfur dioxide` <dbl>, density <dbl>, pH <dbl>, sulphates <dbl>,
## #   alcohol <dbl>, quality <int>
…
TIP: In base R, this would be equivalent to the code: cars_data[cars_data$mpg > 20 & cars_data$cyl == 4, ].

2.2.2 Ordering rows with arrange()

arrange() works similarly to filter, but instead of filtering and selecting rows, it just reorders them according to some condition we pass. This function takes a data.frame and a set of column names by which it will sort. If you provide more than one column name, each additional column passed will be used as a tiebreaker.

arrange(cars_data, cyl, mpg, hp)

## # A tibble: 32 × 11
##      mpg   cyl  disp    hp  drat    wt  qsec    vs    am  gear  carb
##    <dbl> <dbl> <dbl> <dbl> <dbl> <dbl> <dbl> <dbl> <dbl> <dbl> <dbl>
##  1  21.4     4 121     109  4.11  2.78  18.6     1     1     4     2
##  2  21.5     4 120.     97  3.7   2.46  20.0     1     0     3     1
##  3  22.8     4 108      93  3.85  2.32  18.6     1     1     4     1
##  4  22.8     4 141.     95  3.92  3.15  22.9     1     0     4     2
##  5  24.4     4 147.     62  3.69  3.19  20       1     0     4     2
##  6  26       4 120.     91  4.43  2.14  16.7     0     1     5     2
##  7  27.3     4  79      66  4.08  1.94  18.9     1     1     4     1
##  8  30.4     4  75.7    52  4.93  1.62  18.5     1     1     4     2
##  9  30.4     4  95.1   113  3.77  1.51  16.9     1     1     5     2
## 10  32.4     4  78.7    66  4.08  2.2   19.5     1     1     4     1
## # ℹ 22 more rows

If you want to sort in descending order, use the desc(column_name) function inside arrange(). This would be particularly interesting if you wanted to sort data in the final column from highest to lowest.

2.2.3 Selecting columns with select()

We usually work with large datasets with many columns, but only a few columns will be of interest. select() allows us to quickly focus on a subset of the data. The best part is that we can use operations - which normally only work with column positions - directly on variable names.

# Selection by name
select(cars_data, mpg, cyl, hp)

## # A tibble: 32 × 3
##      mpg   cyl    hp
##    <dbl> <dbl> <dbl>
##  1  21       6   110
##  2  21       6   110
##  3  22.8     4    93
##  4  21.4     6   110
##  5  18.7     8   175
##  6  18.1     6   105
##  7  14.3     8   245
##  8  24.4     4    62
##  9  22.8     4    95
## 10  19.2     6   123
## # ℹ 22 more rows

# Selecting all columns in a range (inclusive)
select(cars_data, mpg:wt)

## # A tibble: 32 × 6
##      mpg   cyl  disp    hp  drat    wt
##    <dbl> <dbl> <dbl> <dbl> <dbl> <dbl>
##  1  21       6  160    110  3.9   2.62
##  2  21       6  160    110  3.9   2.88
##  3  22.8     4  108     93  3.85  2.32
##  4  21.4     6  258    110  3.08  3.22
##  5  18.7     8  360    175  3.15  3.44
##  6  18.1     6  225    105  2.76  3.46
##  7  14.3     8  360    245  3.21  3.57
##  8  24.4     4  147.    62  3.69  3.19
##  9  22.8     4  141.    95  3.92  3.15
## 10  19.2     6  168.   123  3.92  3.44
## # ℹ 22 more rows

# Selecting all columns except those in a range (inclusive)
select(cars_data, -(mpg:wt))

## # A tibble: 32 × 5
##     qsec    vs    am  gear  carb
##    <dbl> <dbl> <dbl> <dbl> <dbl>
##  1  16.5     0     1     4     4
##  2  17.0     0     1     4     4
##  3  18.6     1     1     4     1
##  4  19.4     1     0     3     1
##  5  17.0     0     0     3     2
##  6  20.2     1     0     3     1
##  7  15.8     0     0     3     4
##  8  20       1     0     4     2
##  9  22.9     1     0     4     2
## 10  18.3     1     0     4     4
## # ℹ 22 more rows

TIP: There are helper functions we can use inside select(). They are functions that resemble the functioning of a regular expression (a concept we’ll see in Module 3) to identify column names that meet a certain criterion. They’re very useful with large datasets: starts_with(), ends_with(), matches() and contains().

Let’s for example select all columns that start with “d”:

select(cars_data, starts_with("d"))

## # A tibble: 32 × 2
##     disp  drat
##    <dbl> <dbl>
##  1  160   3.9 
##  2  160   3.9 
##  3  108   3.85
##  4  258   3.08
##  5  360   3.15
##  6  225   2.76
##  7  360   3.21
##  8  147.  3.69
##  9  141.  3.92
## 10  168.  3.92
## # ℹ 22 more rows

select() can even be used to rename variables:

select(cars_data, miles_per_gallon = mpg)

## # A tibble: 32 × 1
##    miles_per_gallon
##               <dbl>
##  1             21  
##  2             21  
##  3             22.8
##  4             21.4
##  5             18.7
##  6             18.1
##  7             14.3
##  8             24.4
##  9             22.8
## 10             19.2
## # ℹ 22 more rows

The new variable will be called miles_per_gallon and will receive all information from the original mpg.

However, select() “abandons” all other variables when you do a renaming. It’s better then to use rename():

rename(cars_data, miles_per_gallon = mpg)

## # A tibble: 32 × 11
##    miles_per_gallon   cyl  disp    hp  drat    wt  qsec    vs    am  gear  carb
##               <dbl> <dbl> <dbl> <dbl> <dbl> <dbl> <dbl> <dbl> <dbl> <dbl> <dbl>
##  1             21       6  160    110  3.9   2.62  16.5     0     1     4     4
##  2             21       6  160    110  3.9   2.88  17.0     0     1     4     4
##  3             22.8     4  108     93  3.85  2.32  18.6     1     1     4     1
##  4             21.4     6  258    110  3.08  3.22  19.4     1     0     3     1
##  5             18.7     8  360    175  3.15  3.44  17.0     0     0     3     2
##  6             18.1     6  225    105  2.76  3.46  20.2     1     0     3     1
##  7             14.3     8  360    245  3.21  3.57  15.8     0     0     3     4
##  8             24.4     4  147.    62  3.69  3.19  20       1     0     4     2
##  9             22.8     4  141.    95  3.92  3.15  22.9     1     0     4     2
## 10             19.2     6  168.   123  3.92  3.44  18.3     1     0     4     4
## # ℹ 22 more rows

2.2.4 Adding new columns with mutate()

In addition to selecting sets of existing columns, it’s generally useful to add new columns that are functions of columns already present in the tibble/dataframe. See an example with mutate(), where we want to calculate the power-to-weight ratio:

mutate(cars_data,
  power_to_weight = hp / wt
)

## # A tibble: 32 × 12
##      mpg   cyl  disp    hp  drat    wt  qsec    vs    am  gear  carb power_to_weight
##    <dbl> <dbl> <dbl> <dbl> <dbl> <dbl> <dbl> <dbl> <dbl> <dbl> <dbl>           <dbl>
##  1  21       6  160    110  3.9   2.62  16.5     0     1     4     4            42.0
##  2  21       6  160    110  3.9   2.88  17.0     0     1     4     4            38.3
##  3  22.8     4  108     93  3.85  2.32  18.6     1     1     4     1            40.1
##  4  21.4     6  258    110  3.08  3.22  19.4     1     0     3     1            34.2
##  5  18.7     8  360    175  3.15  3.44  17.0     0     0     3     2            50.9
##  6  18.1     6  225    105  2.76  3.46  20.2     1     0     3     1            30.3
##  7  14.3     8  360    245  3.21  3.57  15.8     0     0     3     4            68.6
##  8  24.4     4  147.    62  3.69  3.19  20       1     0     4     2            19.4
##  9  22.8     4  141.    95  3.92  3.15  22.9     1     0     4     2            30.2
## 10  19.2     6  168.   123  3.92  3.44  18.3     1     0     4     4            35.8
## # ℹ 22 more rows
mutate() even allows us to refer to columns we just created in the same command. Let’s save this change in a new tibble, called cars_data2

cars_data2 <- mutate(cars_data,
  power_to_weight = hp / wt,
  power_to_weight_scaled = power_to_weight * 100
)

If we’re only interested in the new variables, we would use transmute():

transmute(cars_data,
  power_to_weight = hp / wt,
  power_to_weight_scaled = power_to_weight * 100
)

## # A tibble: 32 × 2
##    power_to_weight power_to_weight_scaled
##              <dbl>                  <dbl>
##  1            42.0                  4198.
##  2            38.3                  3826.
##  3            40.1                  4009.
##  4            34.2                  3421.
##  5            50.9                  5087.
##  6            30.3                  3035.
##  7            68.6                  6863.
##  8            19.4                  1944.
##  9            30.2                  3016.
## 10            35.8                  3576.
## # ℹ 22 more rows
…
Generally, in the context of data analysis with dplyr, we use case_when() inside a mutate() or transmute function (which brings only the newly created column), since we intend to change column entries, thus changing the column itself.

In the cars_data2 tibble, let’s create a new character column called efficiency_level, where we’ll classify efficiency as: high if mpg > 20; low if mpg < 15 or moderate in other cases:

transmute(cars_data2,
       efficiency_level =
         case_when(
           mpg > 20 ~ "high",
           mpg < 15 ~ "low",
           TRUE ~ "moderate"
         ))

## # A tibble: 32 × 1
##    efficiency_level
##    <chr>           
##  1 high            
##  2 high            
##  3 high            
##  4 high            
##  5 moderate        
##  6 moderate        
##  7 low             
##  8 high            
##  9 high            
## 10 moderate        
## # ℹ 22 more rows
…
2.2.7.2 Care with variable names

One of the best features of the dplyr package is that we can refer to variables in a tibble or dataframe as if they were regular variables (those in the Global Environment). However, the reference syntax for column names hides some differences between verbs. For example, a column name or value passed to select() doesn’t have the same meaning as it would in mutate().

See equivalent forms from dplyr’s point of view:

select(cars_data2, mpg)

## # A tibble: 32 × 1
##      mpg
##    <dbl>
##  1  21  
##  2  21  
##  3  22.8
##  4  21.4
##  5  18.7
##  6  18.1
##  7  14.3
##  8  24.4
##  9  22.8
## 10  19.2
## # ℹ 22 more rows

select(cars_data2, 1)

## # A tibble: 32 × 1
##      mpg
##    <dbl>
##  1  21  
##  2  21  
##  3  22.8
##  4  21.4
##  5  18.7
##  6  18.1
##  7  14.3
##  8  24.4
##  9  22.8
## 10  19.2
## # ℹ 22 more rows

If there’s a variable in the Global Environment with the same name as a column in our tibble/dataframe, dplyr will prioritize the variable that’s in the tibble.

mpg <- 5
select(cars_data2, mpg)

## # A tibble: 32 × 1
##      mpg
##    <dbl>
##  1  21  
##  2  21  
##  3  22.8
##  4  21.4
##  5  18.7
##  6  18.1
##  7  14.3
##  8  24.4
##  9  22.8
## 10  19.2
## # ℹ 22 more rows

This behavior only applies to “raw” names and selection calls like select(tibble, var1, var2, var3) or var1:var3. In all other cases, tibble column names are preferred over “loose” variables in the Global Environment.

var1 <- "c"
select(cars_data2, starts_with(var1))

## # A tibble: 32 × 2
##      cyl  carb
##    <dbl> <dbl>
##  1     6     4
##  2     6     4
##  3     4     1
##  4     6     1
##  5     8     2
##  6     6     1
##  7     8     4
##  8     4     2
##  9     4     2
## 10     6     4
## # ℹ 22 more rows
…
